ISSS608-VAA - Hands-On_Ex05
…
GAStech_edges_aggregated <- GAStech_edges %>%
  filter(MainSubject == "Work related") %>%
  group_by(source, target, Weekday) %>%
    summarise(Weight = n()) %>%
  filter(source!=target) %>%
  filter(Weight > 1) %>%
  ungroup()

`summarise()` has grouped output by 'source', 'target'. You can override using
the `.groups` argument.

GAStech_edges_aggregated

# A tibble: 1,372 × 4
   source target Weekday   Weight
    <dbl>  <dbl> <ord>      <int>
 1      1      2 Sunday         5
 2      1      2 Monday         2
 3      1      2 Tuesday        3
 4      1      2 Wednesday      4
 5      1      2 Friday         6
 6      1      3 Sunday         5
 7      1      3 Monday         2
 8      1      3 Tuesday        3
 9      1      3 Wednesday      4
10      1      3 Friday         6
# ℹ 1,362 more rows
…
GAStech_graph <- tbl_graph(nodes = GAStech_nodes,
                           edges = GAStech_edges_aggregated, 
                           directed = TRUE)

GAStech_graph

# A tbl_graph: 54 nodes and 1372 edges
#
# A directed multigraph with 1 component
#
# A tibble: 54 × 4
     id label               Department     Title                                
  <dbl> <chr>               <chr>          <chr>                                
1     1 Mat.Bramar          Administration Assistant to CEO                     
2     2 Anda.Ribera         Administration Assistant to CFO                     
3     3 Rachel.Pantanal     Administration Assistant to CIO                     
4     4 Linda.Lagos         Administration Assistant to COO                     
5     5 Ruscella.Mies.Haber Administration Assistant to Engineering Group Manag…
6     6 Carla.Forluniau     Administration Assistant to IT Group Manager        
# ℹ 48 more rows
#
# A tibble: 1,372 × 4
   from    to Weekday Weight
  <int> <int> <ord>    <int>
1     1     2 Sunday       5
2     1     2 Monday       2
3     1     2 Tuesday      3
# ℹ 1,369 more rows
…
