ISSS608-VAA - Take Home Exercise 1
…
3.2 Loading data

Importing both datasets and assigning it to a variable each.

participants <- read_csv("data/Participants.csv")
fin_journal <- read_csv("data/FinancialJournal.csv")

3.2.1 Participants Data

Below show a snippet of the data

participants

# A tibble: 1,011 × 7
   participantId householdSize haveKids   age educationLevel      interestGroup
           <dbl>         <dbl> <lgl>    <dbl> <chr>               <chr>        
 1             0             3 TRUE        36 HighSchoolOrCollege H            
 2             1             3 TRUE        25 HighSchoolOrCollege B            
 3             2             3 TRUE        35 HighSchoolOrCollege A            
 4             3             3 TRUE        21 HighSchoolOrCollege I            
 5             4             3 TRUE        43 Bachelors           H            
 6             5             3 TRUE        32 HighSchoolOrCollege D            
 7             6             3 TRUE        26 HighSchoolOrCollege I            
 8             7             3 TRUE        27 Bachelors           A            
 9             8             3 TRUE        20 Bachelors           G            
10             9             3 TRUE        35 Bachelors           D            
# ℹ 1,001 more rows
# ℹ 1 more variable: joviality <dbl>

3.2.2 FinancialJournal Data

fin_journal

# A tibble: 1,513,636 × 4
   participantId timestamp           category  amount
           <dbl> <dttm>              <chr>      <dbl>
 1             0 2022-03-01 00:00:00 Wage      2473. 
 2             0 2022-03-01 00:00:00 Shelter   -555. 
 3             0 2022-03-01 00:00:00 Education  -38.0
 4             1 2022-03-01 00:00:00 Wage      2047. 
 5             1 2022-03-01 00:00:00 Shelter   -555. 
 6             1 2022-03-01 00:00:00 Education  -38.0
 7             2 2022-03-01 00:00:00 Wage      2437. 
 8             2 2022-03-01 00:00:00 Shelter   -557. 
 9             2 2022-03-01 00:00:00 Education  -12.8
10             3 2022-03-01 00:00:00 Wage      2367. 
# ℹ 1,513,626 more rows
…
Below is a preview of the pivoted table.

fin_journal_pivot

# A tibble: 10,691 × 8
# Groups:   participantId, timestamp [10,691]
   participantId timestamp  Education  Food Recreation Shelter   Wage
   <chr>         <date>         <dbl> <dbl>      <dbl>   <dbl>  <dbl>
 1 0             2022-03-01     -38.0 -268.     -349.    -555. 11932.
 2 0             2022-04-01     -38.0 -266.     -219.    -555.  8637.
 3 0             2022-05-01     -38.0 -265.     -383.    -555.  9048.
 4 0             2022-06-01     -38.0 -257.     -466.    -555.  9048.
 5 0             2022-07-01     -38.0 -270.    -1070.    -555.  8637.
 6 0             2022-08-01     -38.0 -262.     -314.    -555.  9459.
 7 0             2022-09-01     -38.0 -256.     -295.    -555.  9048.
 8 0             2022-10-01     -38.0 -267.      -25.0   -555.  8637.
 9 0             2022-11-01     -38.0 -261.     -377.    -555.  9048.
10 0             2022-12-01     -38.0 -266.     -357.    -555.  9048.
# ℹ 10,681 more rows
# ℹ 1 more variable: RentAdjustment <dbl>
…
